M48
;DRILL file {KiCad 5.0.0-fee4fd1~66~ubuntu18.04.1} date Thu Sep 20 12:30:50 2018
;FORMAT={-:-/ absolute / metric / decimal}
FMAT,2
METRIC,TZ
T1C1.000
%
G90
G05
M71
T1
X141.11Y-103.81
X143.65Y-103.81
X146.19Y-103.81
X148.73Y-103.81
X151.27Y-103.81
X153.81Y-103.81
X156.35Y-103.81
X158.89Y-103.81
X141.11Y-96.19
X143.65Y-96.19
X146.19Y-96.19
X148.73Y-96.19
X151.27Y-96.19
X153.81Y-96.19
X156.35Y-96.19
X158.89Y-96.19
T0
M30
