G04 #@! TF.GenerationSoftware,KiCad,Pcbnew,5.0.0-4.fc30*
G04 #@! TF.CreationDate,2018-10-15T14:17:48-04:00*
G04 #@! TF.ProjectId,SOT-25,534F542D32352E6B696361645F706362,rev?*
G04 #@! TF.SameCoordinates,Original*
G04 #@! TF.FileFunction,Profile,NP*
%FSLAX46Y46*%
G04 Gerber Fmt 4.6, Leading zero omitted, Abs format (unit mm)*
G04 Created by KiCad (PCBNEW 5.0.0-4.fc30) date Mon Oct 15 14:17:48 2018*
%MOMM*%
%LPD*%
G01*
G04 APERTURE LIST*
%ADD10C,0.150000*%
G04 APERTURE END LIST*
D10*
X139700000Y-81280000D02*
X160020000Y-81280000D01*
X139700000Y-91440000D02*
X139700000Y-81280000D01*
X160020000Y-91440000D02*
X139700000Y-91440000D01*
X160020000Y-81280000D02*
X160020000Y-91440000D01*
X139700000Y-81280000D02*
X160020000Y-81280000D01*
M02*
