G04 #@! TF.GenerationSoftware,KiCad,Pcbnew,5.0.0-4.fc30*
G04 #@! TF.CreationDate,2018-10-15T14:17:48-04:00*
G04 #@! TF.ProjectId,SOT-25,534F542D32352E6B696361645F706362,rev?*
G04 #@! TF.SameCoordinates,Original*
G04 #@! TF.FileFunction,Copper,L1,Top,Signal*
G04 #@! TF.FilePolarity,Positive*
%FSLAX46Y46*%
G04 Gerber Fmt 4.6, Leading zero omitted, Abs format (unit mm)*
G04 Created by KiCad (PCBNEW 5.0.0-4.fc30) date Mon Oct 15 14:17:48 2018*
%MOMM*%
%LPD*%
G01*
G04 APERTURE LIST*
G04 #@! TA.AperFunction,ComponentPad*
%ADD10R,1.700000X1.700000*%
G04 #@! TD*
G04 #@! TA.AperFunction,ComponentPad*
%ADD11O,1.700000X1.700000*%
G04 #@! TD*
G04 #@! TA.AperFunction,ComponentPad*
%ADD12C,1.700000*%
G04 #@! TD*
G04 #@! TA.AperFunction,SMDPad,CuDef*
%ADD13R,1.560000X0.650000*%
G04 #@! TD*
G04 #@! TA.AperFunction,Conductor*
%ADD14C,0.500000*%
G04 #@! TD*
G04 #@! TA.AperFunction,NonConductor*
%ADD15C,0.254000*%
G04 #@! TD*
G04 APERTURE END LIST*
D10*
G04 #@! TO.P,J1,1*
G04 #@! TO.N,Net-(J1-Pad1)*
X142240000Y-83820000D03*
D11*
G04 #@! TO.P,J1,2*
G04 #@! TO.N,Net-(J1-Pad2)*
X142240000Y-86360000D03*
G04 #@! TO.P,J1,3*
G04 #@! TO.N,Net-(J1-Pad3)*
X142240000Y-88900000D03*
G04 #@! TD*
G04 #@! TO.P,J2,3*
G04 #@! TO.N,Net-(J2-Pad3)*
X157480000Y-83820000D03*
G04 #@! TO.P,J2,2*
G04 #@! TO.N,Net-(J2-Pad2)*
X157480000Y-86360000D03*
D12*
G04 #@! TO.P,J2,1*
G04 #@! TO.N,Net-(J2-Pad1)*
X157480000Y-88900000D03*
G04 #@! TD*
D13*
G04 #@! TO.P,U1,1*
G04 #@! TO.N,Net-(J1-Pad1)*
X148336000Y-84836000D03*
G04 #@! TO.P,U1,2*
G04 #@! TO.N,Net-(J1-Pad2)*
X148336000Y-85786000D03*
G04 #@! TO.P,U1,3*
G04 #@! TO.N,Net-(J1-Pad3)*
X148336000Y-86736000D03*
G04 #@! TO.P,U1,4*
G04 #@! TO.N,Net-(J2-Pad1)*
X151036000Y-86736000D03*
G04 #@! TO.P,U1,5*
G04 #@! TO.N,Net-(J2-Pad2)*
X151036000Y-84836000D03*
G04 #@! TD*
D14*
G04 #@! TO.N,Net-(J1-Pad1)*
X143256000Y-84836000D02*
X142240000Y-83820000D01*
X148336000Y-84836000D02*
X143256000Y-84836000D01*
G04 #@! TO.N,Net-(J1-Pad2)*
X142814000Y-85786000D02*
X142240000Y-86360000D01*
X148336000Y-85786000D02*
X142814000Y-85786000D01*
G04 #@! TO.N,Net-(J1-Pad3)*
X143442081Y-88900000D02*
X142240000Y-88900000D01*
X148336000Y-86736000D02*
X148336000Y-87311000D01*
X148336000Y-87311000D02*
X146747000Y-88900000D01*
X146747000Y-88900000D02*
X143442081Y-88900000D01*
G04 #@! TO.N,Net-(J2-Pad2)*
X155956000Y-84836000D02*
X157480000Y-86360000D01*
X151036000Y-84836000D02*
X155956000Y-84836000D01*
G04 #@! TO.N,Net-(J2-Pad1)*
X156380000Y-88900000D02*
X157480000Y-88900000D01*
X151036000Y-86736000D02*
X151036000Y-87311000D01*
X151036000Y-87311000D02*
X152625000Y-88900000D01*
X152625000Y-88900000D02*
X156380000Y-88900000D01*
G04 #@! TD*
D15*
G36*
X159618001Y-91038000D02*
X140102000Y-91038000D01*
X140102000Y-86360000D01*
X141039942Y-86360000D01*
X141131291Y-86819242D01*
X141391431Y-87208569D01*
X141780758Y-87468709D01*
X142124080Y-87537000D01*
X142355920Y-87537000D01*
X142699242Y-87468709D01*
X143088569Y-87208569D01*
X143348709Y-86819242D01*
X143439461Y-86363000D01*
X147232142Y-86363000D01*
X147222594Y-86411000D01*
X147222594Y-87061000D01*
X147247973Y-87188589D01*
X147320246Y-87296754D01*
X147428411Y-87369027D01*
X147456404Y-87374595D01*
X146508000Y-88323000D01*
X143270026Y-88323000D01*
X143088569Y-88051431D01*
X142699242Y-87791291D01*
X142355920Y-87723000D01*
X142124080Y-87723000D01*
X141780758Y-87791291D01*
X141391431Y-88051431D01*
X141131291Y-88440758D01*
X141039942Y-88900000D01*
X141131291Y-89359242D01*
X141391431Y-89748569D01*
X141780758Y-90008709D01*
X142124080Y-90077000D01*
X142355920Y-90077000D01*
X142699242Y-90008709D01*
X143088569Y-89748569D01*
X143270026Y-89477000D01*
X146690172Y-89477000D01*
X146747000Y-89488304D01*
X146803828Y-89477000D01*
X146803829Y-89477000D01*
X146972134Y-89443522D01*
X147162994Y-89315994D01*
X147195188Y-89267812D01*
X148703815Y-87759186D01*
X148751994Y-87726994D01*
X148879522Y-87536134D01*
X148907713Y-87394406D01*
X149116000Y-87394406D01*
X149243589Y-87369027D01*
X149351754Y-87296754D01*
X149424027Y-87188589D01*
X149449406Y-87061000D01*
X149449406Y-86411000D01*
X149922594Y-86411000D01*
X149922594Y-87061000D01*
X149947973Y-87188589D01*
X150020246Y-87296754D01*
X150128411Y-87369027D01*
X150256000Y-87394406D01*
X150464287Y-87394406D01*
X150492478Y-87536134D01*
X150620007Y-87726994D01*
X150668186Y-87759186D01*
X152176814Y-89267815D01*
X152209006Y-89315994D01*
X152399866Y-89443522D01*
X152568171Y-89477000D01*
X152624999Y-89488304D01*
X152681827Y-89477000D01*
X156445025Y-89477000D01*
X156482187Y-89566717D01*
X156813283Y-89897813D01*
X157245880Y-90077000D01*
X157714120Y-90077000D01*
X158146717Y-89897813D01*
X158477813Y-89566717D01*
X158657000Y-89134120D01*
X158657000Y-88665880D01*
X158477813Y-88233283D01*
X158146717Y-87902187D01*
X157714120Y-87723000D01*
X157245880Y-87723000D01*
X156813283Y-87902187D01*
X156482187Y-88233283D01*
X156445025Y-88323000D01*
X152864001Y-88323000D01*
X151915596Y-87374595D01*
X151943589Y-87369027D01*
X152051754Y-87296754D01*
X152124027Y-87188589D01*
X152149406Y-87061000D01*
X152149406Y-86411000D01*
X152124027Y-86283411D01*
X152051754Y-86175246D01*
X151943589Y-86102973D01*
X151816000Y-86077594D01*
X150256000Y-86077594D01*
X150128411Y-86102973D01*
X150020246Y-86175246D01*
X149947973Y-86283411D01*
X149922594Y-86411000D01*
X149449406Y-86411000D01*
X149424027Y-86283411D01*
X149409053Y-86261000D01*
X149424027Y-86238589D01*
X149449406Y-86111000D01*
X149449406Y-85461000D01*
X149424027Y-85333411D01*
X149409053Y-85311000D01*
X149424027Y-85288589D01*
X149449406Y-85161000D01*
X149449406Y-84511000D01*
X149922594Y-84511000D01*
X149922594Y-85161000D01*
X149947973Y-85288589D01*
X150020246Y-85396754D01*
X150128411Y-85469027D01*
X150256000Y-85494406D01*
X151816000Y-85494406D01*
X151943589Y-85469027D01*
X152027440Y-85413000D01*
X155717000Y-85413000D01*
X156343661Y-86039662D01*
X156279942Y-86360000D01*
X156371291Y-86819242D01*
X156631431Y-87208569D01*
X157020758Y-87468709D01*
X157364080Y-87537000D01*
X157595920Y-87537000D01*
X157939242Y-87468709D01*
X158328569Y-87208569D01*
X158588709Y-86819242D01*
X158680058Y-86360000D01*
X158588709Y-85900758D01*
X158328569Y-85511431D01*
X157939242Y-85251291D01*
X157595920Y-85183000D01*
X157364080Y-85183000D01*
X157159662Y-85223661D01*
X156404188Y-84468188D01*
X156371994Y-84420006D01*
X156181134Y-84292478D01*
X156012829Y-84259000D01*
X156012828Y-84259000D01*
X155956000Y-84247696D01*
X155899172Y-84259000D01*
X152027440Y-84259000D01*
X151943589Y-84202973D01*
X151816000Y-84177594D01*
X150256000Y-84177594D01*
X150128411Y-84202973D01*
X150020246Y-84275246D01*
X149947973Y-84383411D01*
X149922594Y-84511000D01*
X149449406Y-84511000D01*
X149424027Y-84383411D01*
X149351754Y-84275246D01*
X149243589Y-84202973D01*
X149116000Y-84177594D01*
X147556000Y-84177594D01*
X147428411Y-84202973D01*
X147344560Y-84259000D01*
X143495001Y-84259000D01*
X143423406Y-84187405D01*
X143423406Y-83820000D01*
X156279942Y-83820000D01*
X156371291Y-84279242D01*
X156631431Y-84668569D01*
X157020758Y-84928709D01*
X157364080Y-84997000D01*
X157595920Y-84997000D01*
X157939242Y-84928709D01*
X158328569Y-84668569D01*
X158588709Y-84279242D01*
X158680058Y-83820000D01*
X158588709Y-83360758D01*
X158328569Y-82971431D01*
X157939242Y-82711291D01*
X157595920Y-82643000D01*
X157364080Y-82643000D01*
X157020758Y-82711291D01*
X156631431Y-82971431D01*
X156371291Y-83360758D01*
X156279942Y-83820000D01*
X143423406Y-83820000D01*
X143423406Y-82970000D01*
X143398027Y-82842411D01*
X143325754Y-82734246D01*
X143217589Y-82661973D01*
X143090000Y-82636594D01*
X141390000Y-82636594D01*
X141262411Y-82661973D01*
X141154246Y-82734246D01*
X141081973Y-82842411D01*
X141056594Y-82970000D01*
X141056594Y-84670000D01*
X141081973Y-84797589D01*
X141154246Y-84905754D01*
X141262411Y-84978027D01*
X141390000Y-85003406D01*
X142607405Y-85003406D01*
X142803737Y-85199738D01*
X142621901Y-85235907D01*
X142355920Y-85183000D01*
X142124080Y-85183000D01*
X141780758Y-85251291D01*
X141391431Y-85511431D01*
X141131291Y-85900758D01*
X141039942Y-86360000D01*
X140102000Y-86360000D01*
X140102000Y-81682000D01*
X159618000Y-81682000D01*
X159618001Y-91038000D01*
X159618001Y-91038000D01*
G37*
X159618001Y-91038000D02*
X140102000Y-91038000D01*
X140102000Y-86360000D01*
X141039942Y-86360000D01*
X141131291Y-86819242D01*
X141391431Y-87208569D01*
X141780758Y-87468709D01*
X142124080Y-87537000D01*
X142355920Y-87537000D01*
X142699242Y-87468709D01*
X143088569Y-87208569D01*
X143348709Y-86819242D01*
X143439461Y-86363000D01*
X147232142Y-86363000D01*
X147222594Y-86411000D01*
X147222594Y-87061000D01*
X147247973Y-87188589D01*
X147320246Y-87296754D01*
X147428411Y-87369027D01*
X147456404Y-87374595D01*
X146508000Y-88323000D01*
X143270026Y-88323000D01*
X143088569Y-88051431D01*
X142699242Y-87791291D01*
X142355920Y-87723000D01*
X142124080Y-87723000D01*
X141780758Y-87791291D01*
X141391431Y-88051431D01*
X141131291Y-88440758D01*
X141039942Y-88900000D01*
X141131291Y-89359242D01*
X141391431Y-89748569D01*
X141780758Y-90008709D01*
X142124080Y-90077000D01*
X142355920Y-90077000D01*
X142699242Y-90008709D01*
X143088569Y-89748569D01*
X143270026Y-89477000D01*
X146690172Y-89477000D01*
X146747000Y-89488304D01*
X146803828Y-89477000D01*
X146803829Y-89477000D01*
X146972134Y-89443522D01*
X147162994Y-89315994D01*
X147195188Y-89267812D01*
X148703815Y-87759186D01*
X148751994Y-87726994D01*
X148879522Y-87536134D01*
X148907713Y-87394406D01*
X149116000Y-87394406D01*
X149243589Y-87369027D01*
X149351754Y-87296754D01*
X149424027Y-87188589D01*
X149449406Y-87061000D01*
X149449406Y-86411000D01*
X149922594Y-86411000D01*
X149922594Y-87061000D01*
X149947973Y-87188589D01*
X150020246Y-87296754D01*
X150128411Y-87369027D01*
X150256000Y-87394406D01*
X150464287Y-87394406D01*
X150492478Y-87536134D01*
X150620007Y-87726994D01*
X150668186Y-87759186D01*
X152176814Y-89267815D01*
X152209006Y-89315994D01*
X152399866Y-89443522D01*
X152568171Y-89477000D01*
X152624999Y-89488304D01*
X152681827Y-89477000D01*
X156445025Y-89477000D01*
X156482187Y-89566717D01*
X156813283Y-89897813D01*
X157245880Y-90077000D01*
X157714120Y-90077000D01*
X158146717Y-89897813D01*
X158477813Y-89566717D01*
X158657000Y-89134120D01*
X158657000Y-88665880D01*
X158477813Y-88233283D01*
X158146717Y-87902187D01*
X157714120Y-87723000D01*
X157245880Y-87723000D01*
X156813283Y-87902187D01*
X156482187Y-88233283D01*
X156445025Y-88323000D01*
X152864001Y-88323000D01*
X151915596Y-87374595D01*
X151943589Y-87369027D01*
X152051754Y-87296754D01*
X152124027Y-87188589D01*
X152149406Y-87061000D01*
X152149406Y-86411000D01*
X152124027Y-86283411D01*
X152051754Y-86175246D01*
X151943589Y-86102973D01*
X151816000Y-86077594D01*
X150256000Y-86077594D01*
X150128411Y-86102973D01*
X150020246Y-86175246D01*
X149947973Y-86283411D01*
X149922594Y-86411000D01*
X149449406Y-86411000D01*
X149424027Y-86283411D01*
X149409053Y-86261000D01*
X149424027Y-86238589D01*
X149449406Y-86111000D01*
X149449406Y-85461000D01*
X149424027Y-85333411D01*
X149409053Y-85311000D01*
X149424027Y-85288589D01*
X149449406Y-85161000D01*
X149449406Y-84511000D01*
X149922594Y-84511000D01*
X149922594Y-85161000D01*
X149947973Y-85288589D01*
X150020246Y-85396754D01*
X150128411Y-85469027D01*
X150256000Y-85494406D01*
X151816000Y-85494406D01*
X151943589Y-85469027D01*
X152027440Y-85413000D01*
X155717000Y-85413000D01*
X156343661Y-86039662D01*
X156279942Y-86360000D01*
X156371291Y-86819242D01*
X156631431Y-87208569D01*
X157020758Y-87468709D01*
X157364080Y-87537000D01*
X157595920Y-87537000D01*
X157939242Y-87468709D01*
X158328569Y-87208569D01*
X158588709Y-86819242D01*
X158680058Y-86360000D01*
X158588709Y-85900758D01*
X158328569Y-85511431D01*
X157939242Y-85251291D01*
X157595920Y-85183000D01*
X157364080Y-85183000D01*
X157159662Y-85223661D01*
X156404188Y-84468188D01*
X156371994Y-84420006D01*
X156181134Y-84292478D01*
X156012829Y-84259000D01*
X156012828Y-84259000D01*
X155956000Y-84247696D01*
X155899172Y-84259000D01*
X152027440Y-84259000D01*
X151943589Y-84202973D01*
X151816000Y-84177594D01*
X150256000Y-84177594D01*
X150128411Y-84202973D01*
X150020246Y-84275246D01*
X149947973Y-84383411D01*
X149922594Y-84511000D01*
X149449406Y-84511000D01*
X149424027Y-84383411D01*
X149351754Y-84275246D01*
X149243589Y-84202973D01*
X149116000Y-84177594D01*
X147556000Y-84177594D01*
X147428411Y-84202973D01*
X147344560Y-84259000D01*
X143495001Y-84259000D01*
X143423406Y-84187405D01*
X143423406Y-83820000D01*
X156279942Y-83820000D01*
X156371291Y-84279242D01*
X156631431Y-84668569D01*
X157020758Y-84928709D01*
X157364080Y-84997000D01*
X157595920Y-84997000D01*
X157939242Y-84928709D01*
X158328569Y-84668569D01*
X158588709Y-84279242D01*
X158680058Y-83820000D01*
X158588709Y-83360758D01*
X158328569Y-82971431D01*
X157939242Y-82711291D01*
X157595920Y-82643000D01*
X157364080Y-82643000D01*
X157020758Y-82711291D01*
X156631431Y-82971431D01*
X156371291Y-83360758D01*
X156279942Y-83820000D01*
X143423406Y-83820000D01*
X143423406Y-82970000D01*
X143398027Y-82842411D01*
X143325754Y-82734246D01*
X143217589Y-82661973D01*
X143090000Y-82636594D01*
X141390000Y-82636594D01*
X141262411Y-82661973D01*
X141154246Y-82734246D01*
X141081973Y-82842411D01*
X141056594Y-82970000D01*
X141056594Y-84670000D01*
X141081973Y-84797589D01*
X141154246Y-84905754D01*
X141262411Y-84978027D01*
X141390000Y-85003406D01*
X142607405Y-85003406D01*
X142803737Y-85199738D01*
X142621901Y-85235907D01*
X142355920Y-85183000D01*
X142124080Y-85183000D01*
X141780758Y-85251291D01*
X141391431Y-85511431D01*
X141131291Y-85900758D01*
X141039942Y-86360000D01*
X140102000Y-86360000D01*
X140102000Y-81682000D01*
X159618000Y-81682000D01*
X159618001Y-91038000D01*
M02*
